{
    "scopeName": "source.ttcn",
    "name": "Ttcn",
    "foldingStartMarker": "\\{\\s*$",
    "foldingStopMarker": "\\}",
    "patterns": [
        {
            "include": "#comments"
        },
        {
            "include": "#numbers"
        },
		{
			"include": "#keywords"
		},
		{
			"include": "#strings"
		}
	],
    "repository": {
        "escapechars": {
            "patterns": [{
                "name": "constant.character.escape.ttcn",
                "match": "\\\\[rvn]"
            }]
        },
        "html" : {
            "patterns": [{
                "name": "entity.other.ttcn",
                "begin": "<",
                "end": ">"
            }]
        },
        "doccomment": {
            "patterns": [{
                "match": "@\\b(author|config|desc|exception|member|param|priority|purpose|reference|remark|requirement|return|see|since|status|url|verdict|version)\\b",
                "name": "keyword.doccomment.ttcn"
            }]
        },
        "strings": {
            "patterns": [
                {
                    "name": "string.stringliteral.ttcn",
                    "begin": "'",
                    "end": "'[BbHhOo]",
                    "patterns": [
                        {
                            "name": "string.stringliteral.digit.ttcn",
                            "match": "[0-9a-fA-F]+"
                        },
                        {
                            "name": "string.stringliteral.whitescpece.ttcn",
                            "match": "([ \\t\\v\\f\\r]|[\\\\][\\n])+"
                        }
                    ]
                },
                {
                    "name": "string.quoted.double.ttcn",
                    "begin": "\"",
                    "end": "\"",
                    "patterns": [
                        {
                            "name": "constant.character.escape.ttcn",
                            "match": "\\\"\\\""
                        },
                        {
                            "include": "#escapechars"
                        }
                    ],
                    "applyEndPatternLast": 1
                }
            ]
        },
        "comments": {
			"patterns": [
                {
                    "name": "comment.block.documentation.ttcn",
                    "begin": "\\/\\*\\*",
					"end": "\\*\\/",
                    "patterns": [
                        {
                            "include": "#doccomment"
                        },
                        {
                            "include": "#html"
                        }
                    ]
                },
                {
					"name": "comment.line.documentation.ttcn",
					"begin": "//\\*",
                    "end": "$",
                    "patterns": [
                        {
                            "include": "#doccomment"
                        },
                        {
                            "include": "#html"
                        }
                    ]
				},
				{
					"name": "comment.block.ttcn",
					"begin": "\\/\\*",
					"end": "\\*\\/"
				},
				{
					"name": "comment.line.ttcn",
					"match": "//.*$"
				}
			]
		},
        "numbers": {
            "patterns": [
                {
                    "name": "constant.numeric.float.ttcn",
                    "match": "-?[0-9]+\\.[0-9]+(E-?[0-9]+)?"
                },
                {
                    "name": "constant.numeric.integer.ttcn",
                    "match": "\\b\\d+\\b"
                }
            ]
        },
        "keywords": {
            "patterns": [
                {
                    "name": "support.type.ttcn",
                    "match": "\\b(anytype|bitstring|boolean|char|charstring|default|float|hexstring|integer|objid|octetstring|universal|verdicttype|timer)\\b"
                },
                {
                    "name": "constant.language.specialfloat.ttcn",
                    "match": "-?\\b(infinity|not_a_number)\\b"
                },
                {
                    "name": "constant.language.boolean.ttcn",
                    "match": "\\b(true|false)\\b"
                },
                {
                    "name": "constant.language.other.ttcn",
                    "match": "\\b(null|NULL)\\b"
                },
                {
                    "name": "keyword.basic.ttcn",
                    "match": "\\b(activate|address|alive|all|alt|altstep|and|and4b|any|break|case|component|const|continue|control|deactivate|display|do|else|encode|enumerated|except|exception|execute|extends|extension|external|for|from|function|goto|group|if|import|in|inout|interleave|label|language|length|log|match|message|mixed|mod|modifies|module|modulepar|mtc|noblock|not|not4b|nowait|of|omit|on|optional|or|or4b|out|override|param|pattern|port|present|procedure|realtime|record|recursive|rem|repeat|return|runs|select|self|sender|set|signature|system|timestamp|template|testcase|to|type|union|value|valueof|var|variant|while|with|xor|xor4b|now)\\b"
                },
                {
                    "name": "keyword.templatematch.ttcn",
                    "match": "\\b(complement|decmatch|ifpresent|subset|superset|permutation|conjunct|implies|@dynamic)\\b"
                },
                {
                    "name": "keyword.portop.ttcn",
                    "match": "\\b(call|catch|check|clear|getcall|getreply|halt|raise|receive|reply|send|trigger)\\b"
                },
                {
                    "name": "keyword.timerop.ttcn",
                    "match": "\\b(start|stop|timeout|read|running)\\b"
                },
                {
                    "name": "keyword.configurationop.ttcn",
                    "match": "\\b(create|connect|disconnect|done|kill|killed|map)\\b"
                },
                {
                    "name": "keyword.verdictop.ttcn",
                    "match": "\\b(getverdict|setverdict)\\b"
                },
                {
                    "name": "keyword.sutop.ttcn",
                    "match": "\\b(action)\\b"
                },
                {
                    "name": "keyword.functionon.ttcn",
                    "match": "\\b(apply|defers|refers)\\b"
                },
                {
                    "name": "support.function.ttcn",
                    "match": "\\b(bit2hex|bit2int|bit2oct|bit2str|char2int|char2oct|encvalue|decomp|decvalue|float2int|float2str|hex2bit|hex2int|hex2oct|hex2str|int2bit|int2char|int2float|int2hex|int2oct|int2str|int2unichar|int2enum|isbound|ischosen|ispresent|isvalue|lengthof|log2str|oct2bit|oct2char|oct2hex|oct2int|oct2str|regexp|replace|rnd|sizeof|str2bit|str2float|str2hex|str2int|str2oct|substr|unichar2int|unichar2char|enum2int|get_stringencoding|oct2unichar|remove_bom|unichar2oct|encode_base64|decode_base64|testcasename)\\b"
                },
                {
                    "name": "storage.modifier.ttcn",
                    "match": "@\\b(abstract|control|final|get|internal|property|set|trait)\\b"
                },
                {
                    "name": "keyword.oop.ttcn",
                    "match": "\\b(class|this|super|finally)\\b"
                },
                {
                    "name": "keyword.visibility.ttcn",
                    "match": "\\b(public|private|friend)\\b"
                },
                {
                    "name": "constant.verdict.ttcn",
                    "match": "\\b(none|pass|inconc|fail|error)\\b"
                },
                {
                    "name": "keyword.titanspecific.ttcn",
                    "match": "@\\b(catch|try)\\b"
                },
                {
                    "name": "keyword.operator",
                    "match": ":=|\\+|-|\\.\\.|==|!=|=>"
                },
                {
                    "name": "keyword.ttcnpp.directive",
                    "match": "(?<=^|[\\s])#\\b(ifdef|ifndef|if|else|endif|elif|define|include|import|undef|pragma|warning|error)|defined\\b"
                }
            ]
        }
    }
}